[
  {
    "key": "group_59d9c1edd9035",
    "title": "header001",
    "fields": [
      {
        "key": "field_59d9c2014cbbc",
        "label": "לוגו",
        "name": "_sogo_header001_logo_img",
        "type": "image",
        "instructions": "",
        "required": 0,
        "conditional_logic": 0,
        "wrapper": {
          "width": "",
          "class": "",
          "id": ""
        },
        "return_format": "url",
        "preview_size": "full",
        "library": "all",
        "min_width": "",
        "min_height": "",
        "min_size": "",
        "max_width": "",
        "max_height": "",
        "max_size": "",
        "mime_types": ""
      },
      {
        "key": "field_59d9c56dd3f15",
        "label": "כפתור",
        "name": "_sogo_header001_button",
        "type": "text",
        "instructions": "",
        "required": 0,
        "conditional_logic": 0,
        "wrapper": {
          "width": "",
          "class": "",
          "id": ""
        },
        "default_value": "",
        "placeholder": "",
        "prepend": "",
        "append": "",
        "maxlength": ""
      },
      {
        "key": "field_59d9c542d3f14",
        "label": "כפתור - לינק",
        "name": "_sogo_header001_button_link",
        "type": "page_link",
        "instructions": "",
        "required": 0,
        "conditional_logic": 0,
        "wrapper": {
          "width": "",
          "class": "",
          "id": ""
        },
        "post_type": [],
        "taxonomy": [],
        "allow_null": 0,
        "allow_archives": 1,
        "multiple": 0
      },
      {
        "key": "field_59d9d4f0c5188",
        "label": "תמונת תפריט נפתח",
        "name": "_sogo_header001_sub_menu_image",
        "type": "image",
        "instructions": "",
        "required": 0,
        "conditional_logic": 0,
        "wrapper": {
          "width": "",
          "class": "",
          "id": ""
        },
        "return_format": "url",
        "preview_size": "full",
        "library": "all",
        "min_width": "",
        "min_height": "",
        "min_size": "",
        "max_width": "",
        "max_height": "",
        "max_size": "",
        "mime_types": ""
      },
      {
        "key": "field_59d9de9f13fa0",
        "label": "רשתות חברתיות",
        "name": "_sogo_header001_socialbar",
        "type": "repeater",
        "instructions": "",
        "required": 0,
        "conditional_logic": 0,
        "wrapper": {
          "width": "",
          "class": "",
          "id": ""
        },
        "collapsed": "",
        "min": 0,
        "max": 0,
        "layout": "table",
        "button_label": "",
        "sub_fields": [
          {
            "key": "field_59d9df4813fa1",
            "label": "תמונה",
            "name": "image",
            "type": "image",
            "instructions": "",
            "required": 1,
            "conditional_logic": 0,
            "wrapper": {
              "width": "",
              "class": "",
              "id": ""
            },
            "return_format": "url",
            "preview_size": "thumbnail",
            "library": "all",
            "min_width": "",
            "min_height": "",
            "min_size": "",
            "max_width": "",
            "max_height": "",
            "max_size": "",
            "mime_types": ""
          },
          {
            "key": "field_59d9df7c13fa2",
            "label": "לינק",
            "name": "link",
            "type": "text",
            "instructions": "",
            "required": 1,
            "conditional_logic": 0,
            "wrapper": {
              "width": "",
              "class": "",
              "id": ""
            },
            "default_value": "",
            "placeholder": "",
            "prepend": "",
            "append": "",
            "maxlength": ""
          }
        ]
      }
    ],
    "location": [
      [
        {
          "param": "options_page",
          "operator": "==",
          "value": "theme-general-settings"
        }
      ]
    ],
    "menu_order": 0,
    "position": "normal",
    "style": "default",
    "label_placement": "top",
    "instruction_placement": "label",
    "hide_on_screen": "",
    "active": 1,
    "description": ""
  }
]